…
```r
# the result of | and & must be "TRUE" or "FALSE"  
```

# 5.3.1 Exercises
1) How could you use arrange() to sort all missing values to the start? (Hint: use is.na()).

```r
arrange(flights, desc(is.na(dep_time)), dep_time) # don't understand... 
```

```
## # A tibble: 336,776 × 19
##     year month   day dep_time sched_dep_time dep_delay arr_time
##    <int> <int> <int>    <int>          <int>     <dbl>    <int>
## 1   2013     1     1       NA           1630        NA       NA
## 2   2013     1     1       NA           1935        NA       NA
## 3   2013     1     1       NA           1500        NA       NA
## 4   2013     1     1       NA            600        NA       NA
## 5   2013     1     2       NA           1540        NA       NA
## 6   2013     1     2       NA           1620        NA       NA
## 7   2013     1     2       NA           1355        NA       NA
## 8   2013     1     2       NA           1420        NA       NA
## 9   2013     1     2       NA           1321        NA       NA
## 10  2013     1     2       NA           1545        NA       NA
## # ... with 336,766 more rows, and 12 more variables: sched_arr_time <int>,
## #   arr_delay <dbl>, carrier <chr>, flight <int>, tailnum <chr>,
## #   origin <chr>, dest <chr>, air_time <dbl>, distance <dbl>, hour <dbl>,
## #   minute <dbl>, time_hour <dttm>
```
…
2) Compare air_time with arr_time - dep_time. What do you expect to see? What do you see? What do you need to do to fix it?

```r
tmp6<- mutate(flights,
          new = arr_time - dep_time)
tmp6[,c("arr_time", "new")] # not the same, they should be the same 
```

```
## # A tibble: 336,776 × 2
##    arr_time   new
##       <int> <int>
## 1       830   313
## 2       850   317
## 3       923   381
## 4      1004   460
## 5       812   258
## 6       740   186
## 7       913   358
## 8       709   152
## 9       838   281
## 10      753   195
## # ... with 336,766 more rows
```
…
```r
###### 
mutate(flights,
       air_time2 = arr_time - dep_time,
       air_time_diff = air_time2 - air_time) %>%
  filter(air_time_diff != 0) %>%
  select(air_time, air_time2, dep_time, arr_time, dest)
```

```
## # A tibble: 326,128 × 5
##    air_time air_time2 dep_time arr_time  dest
##       <dbl>     <int>    <int>    <int> <chr>
## 1       227       313      517      830   IAH
## 2       227       317      533      850   IAH
## 3       160       381      542      923   MIA
## 4       183       460      544     1004   BQN
## 5       116       258      554      812   ATL
## 6       150       186      554      740   ORD
## 7       158       358      555      913   FLL
## 8        53       152      557      709   IAD
## 9       140       281      557      838   MCO
## 10      138       195      558      753   ORD
## # ... with 326,118 more rows
```

3) Compare dep_time, sched_dep_time, and dep_delay. How would you expect those three numbers to be related?

```r
mutate(flights,
       dep_delay2 = dep_time - sched_dep_time) %>%
  filter(dep_delay2 != dep_delay) %>%
  select(dep_time, sched_dep_time, dep_delay, dep_delay2)
```

```
## # A tibble: 99,777 × 4
##    dep_time sched_dep_time dep_delay dep_delay2
##       <int>          <int>     <dbl>      <int>
## 1       554            600        -6        -46
## 2       555            600        -5        -45
## 3       557            600        -3        -43
## 4       557            600        -3        -43
## 5       558            600        -2        -42
## 6       558            600        -2        -42
## 7       558            600        -2        -42
## 8       558            600        -2        -42
## 9       558            600        -2        -42
## 10      559            600        -1        -41
## # ... with 99,767 more rows
```
…
