…
```
## Warning: package 'bindrcpp' was built under R version 3.2.5
```

```r
by_country <- by_country %>% 
  mutate(
    resids = map2(data, model, add_residuals)
  )
by_country
```

```
## # A tibble: 142 x 5
##        country continent              data    model            resids
##         <fctr>    <fctr>            <list>   <list>            <list>
##  1 Afghanistan      Asia <tibble [12 x 4]> <S3: lm> <tibble [12 x 5]>
##  2     Albania    Europe <tibble [12 x 4]> <S3: lm> <tibble [12 x 5]>
##  3     Algeria    Africa <tibble [12 x 4]> <S3: lm> <tibble [12 x 5]>
##  4      Angola    Africa <tibble [12 x 4]> <S3: lm> <tibble [12 x 5]>
##  5   Argentina  Americas <tibble [12 x 4]> <S3: lm> <tibble [12 x 5]>
##  6   Australia   Oceania <tibble [12 x 4]> <S3: lm> <tibble [12 x 5]>
##  7     Austria    Europe <tibble [12 x 4]> <S3: lm> <tibble [12 x 5]>
##  8     Bahrain      Asia <tibble [12 x 4]> <S3: lm> <tibble [12 x 5]>
##  9  Bangladesh      Asia <tibble [12 x 4]> <S3: lm> <tibble [12 x 5]>
## 10     Belgium    Europe <tibble [12 x 4]> <S3: lm> <tibble [12 x 5]>
## # ... with 132 more rows
```
…
```r
#> # A tibble: 15 × 2
#>     cyl     q
#>   <dbl> <dbl>
#> 1     4  21.4
#> 2     4  22.8
#> 3     4  26.0
#> 4     4  30.4
#> 5     4  33.9
#> 6     6  17.8
#> # ... with 9 more rows
…
