many_models_list_columns
…
by_country <- by_country %>%
  mutate(model = map(data, country_model))

## Warning: package 'bindrcpp' was built under R version 3.2.5

by_country <- by_country %>% 
  mutate(
    resids = map2(data, model, add_residuals)
  )
by_country

## # A tibble: 142 x 5
##        country continent              data    model            resids
##         <fctr>    <fctr>            <list>   <list>            <list>
##  1 Afghanistan      Asia <tibble [12 x 4]> <S3: lm> <tibble [12 x 5]>
##  2     Albania    Europe <tibble [12 x 4]> <S3: lm> <tibble [12 x 5]>
##  3     Algeria    Africa <tibble [12 x 4]> <S3: lm> <tibble [12 x 5]>
##  4      Angola    Africa <tibble [12 x 4]> <S3: lm> <tibble [12 x 5]>
##  5   Argentina  Americas <tibble [12 x 4]> <S3: lm> <tibble [12 x 5]>
##  6   Australia   Oceania <tibble [12 x 4]> <S3: lm> <tibble [12 x 5]>
##  7     Austria    Europe <tibble [12 x 4]> <S3: lm> <tibble [12 x 5]>
##  8     Bahrain      Asia <tibble [12 x 4]> <S3: lm> <tibble [12 x 5]>
##  9  Bangladesh      Asia <tibble [12 x 4]> <S3: lm> <tibble [12 x 5]>
## 10     Belgium    Europe <tibble [12 x 4]> <S3: lm> <tibble [12 x 5]>
## # ... with 132 more rows
…
