…
diamonds2 <- diamonds2 %>% 
  add_residuals(mod_diamond, "lresid")

diamonds2 %>% 
  filter(abs(lresid) > 1) %>% 
  add_predictions(mod_diamond) %>% 
  mutate(pred = round(2 ^ pred)) %>% 
  select(price, pred, carat:table, x:z) %>% 
  #colnames()
  arrange(price)
```

```
## # A tibble: 743 x 11
##    price  pred carat       cut color clarity depth table     x     y     z
##    <int> <dbl> <dbl>     <ord> <ord>   <ord> <dbl> <dbl> <dbl> <dbl> <dbl>
##  1   410   841  0.36   Premium     J     SI1  61.6  60.0  4.54  4.58  2.81
##  2   451   962  0.39     Ideal     J     SI2  62.6  54.0  4.64  4.69  2.92
##  3   452  1134  0.43   Premium     H      I1  62.0  59.0  4.78  4.83  2.98
##  4   467  1046  0.41      Good     G      I1  63.8  56.0  4.70  4.74  3.01
##  5   468   962  0.39   Premium     H     SI2  61.2  58.0  4.51  6.02  4.44
##  6   484  1004  0.40     Ideal     I     SI2  61.0  58.0  4.74  4.77  2.90
##  7   490  1134  0.43      Good     J     SI2  63.7  57.0  4.76  4.79  3.04
##  8   491  1004  0.40      Good     F      I1  63.3  60.4  4.64  4.68  2.95
##  9   503  1046  0.41      Good     F      I1  63.8  57.0  4.69  4.72  3.00
## 10   555  1134  0.43 Very Good     E      I1  58.4  62.0  4.94  5.00  2.90
## # ... with 733 more rows
```
…
