Assignment_06_28_2017
…
?vehicles
vehicles %>%
  count(id) %>%
  filter(n > 1)

## # A tibble: 0  2
## # ... with 2 variables: id <int>, n <int>

?diamonds
diamonds %>%
  count(carat, cut, color, clarity, x, y, z, depth, table, price) %>%
  filter(n > 1)

## Source: local data frame [143 x 11]
## Groups: carat, cut, color, clarity, x, y, z, depth, table [143]
## 
##    carat       cut color clarity     x     y     z depth table price     n
##    <dbl>     <ord> <ord>   <ord> <dbl> <dbl> <dbl> <dbl> <dbl> <int> <int>
## 1   0.30      Good     J     VS1  4.23  4.26  2.69  63.4    57   394     2
## 2   0.30 Very Good     G     VS2  4.29  4.31  2.71  63.0    55   526     2
## 3   0.30 Very Good     J     VS1  4.26  4.23  2.69  63.4    57   506     2
## 4   0.30   Premium     D     SI1  4.31  4.28  2.67  62.2    58   709     2
## 5   0.30     Ideal     G     VS2  4.31  4.29  2.71  63.0    55   675     2
## 6   0.30     Ideal     G      IF  4.32  4.35  2.69  62.1    55   863     2
## 7   0.30     Ideal     H     SI1  4.26  4.29  2.66  62.2    57   450     2
## 8   0.30     Ideal     H     SI1  4.27  4.28  2.66  62.2    57   450     2
## 9   0.31      Good     D     SI1  4.29  4.31  2.73  63.5    56   571     2
## 10  0.31 Very Good     D     SI1  4.31  4.29  2.73  63.5    56   732     2
## # ... with 133 more rows
…
