…
A flight is always 10 minutes late.

```r
group_by(flights, flight) %>% 
  filter(arr_delay == 10) %>%
  select(flight) 
```

```
## Source: local data frame [3,373 x 1]
## Groups: flight [1,475]
## 
##    flight
##     <int>
## 1    4599
## 2     850
## 3      59
## 4     219
## 5     675
## 6     120
## 7     743
## 8    4135
## 9    1053
## 10   3985
## # ... with 3,363 more rows
```
…
# 2) Come up with another approach that will give you the same output as not_cancelled %>% count(dest) and not_cancelled %>% count(tailnum, wt = distance) (without using count()).

```r
not_cancelled <- flights %>% 
  filter(!is.na(dep_delay), !is.na(arr_delay))

not_cancelled %>% 
  count(dest)
```

```
## # A tibble: 104 × 2
##     dest     n
##    <chr> <int>
## 1    ABQ   254
## 2    ACK   264
## 3    ALB   418
## 4    ANC     8
## 5    ATL 16837
## 6    AUS  2411
## 7    AVL   261
## 8    BDL   412
## 9    BGR   358
## 10   BHM   269
## # ... with 94 more rows
```

```r
group_by(not_cancelled, dest) %>% 
  summarise(n())
```

```
## # A tibble: 104 × 2
##     dest `n()`
##    <chr> <int>
## 1    ABQ   254
## 2    ACK   264
## 3    ALB   418
## 4    ANC     8
## 5    ATL 16837
## 6    AUS  2411
## 7    AVL   261
## 8    BDL   412
## 9    BGR   358
## 10   BHM   269
## # ... with 94 more rows
```

```r
not_cancelled %>%
  count(tailnum, wt = distance)
```

```
## # A tibble: 4,037 × 2
##    tailnum      n
##      <chr>  <dbl>
## 1   D942DN   3418
## 2   N0EGMQ 239143
## 3   N10156 109664
## 4   N102UW  25722
## 5   N103US  24619
## 6   N104UW  24616
## 7   N10575 139903
## 8   N105UW  23618
## 9   N107US  21677
## 10  N108UW  32070
## # ... with 4,027 more rows
```

```r
group_by(not_cancelled, tailnum) %>%
  summarise(sum(distance)) 
```

```
## # A tibble: 4,037 × 2
##    tailnum `sum(distance)`
##      <chr>           <dbl>
## 1   D942DN            3418
## 2   N0EGMQ          239143
## 3   N10156          109664
## 4   N102UW           25722
## 5   N103US           24619
## 6   N104UW           24616
## 7   N10575          139903
## 8   N105UW           23618
## 9   N107US           21677
## 10  N108UW           32070
## # ... with 4,027 more rows
```
…
# 5) Which carrier has the worst delays? Challenge: can you disentangle the effects of bad airports vs. bad carriers? Why/why not? (Hint: think about flights %>% group_by(carrier, dest) %>% summarise(n()))

```r
flights %>% 
  group_by(carrier, dest) %>%
  summarise(n(), 
            delay = mean(arr_delay, na.rm=T)) %>% 
  arrange(desc(delay)) 
```

```
## Source: local data frame [314 x 4]
## Groups: carrier [16]
## 
##    carrier  dest `n()`     delay
##      <chr> <chr> <int>     <dbl>
## 1       UA   STL     2 110.00000
## 2       OO   ORD     1 107.00000
## 3       OO   DTW     2  68.50000
## 4       UA   RDU     1  56.00000
## 5       EV   CAE   113  42.80583
## 6       EV   TYS   323  41.15016
## 7       EV   PBI     6  40.66667
## 8       EV   TUL   315  33.65986
## 9       EV   OKC   346  30.61905
## 10      UA   JAC    23  29.89474
## # ... with 304 more rows
```
…
```r
# mutate & filtering will work within each group. 
```

# 2) Which plane (tailnum) has the worst on-time record?

```r
flights %>% 
  group_by(tailnum) %>% 
  summarise(delay = mean(arr_delay)) %>%
  arrange(desc(delay)) 
```

```
## # A tibble: 4,044 × 2
##    tailnum    delay
##      <chr>    <dbl>
## 1   N844MH 320.0000
## 2   N911DA 294.0000
## 3   N922EV 276.0000
## 4   N587NW 264.0000
## 5   N851NW 219.0000
## 6   N928DN 201.0000
## 7   N7715E 188.0000
## 8   N654UA 185.0000
## 9   N665MQ 174.6667
## 10  N427SW 157.0000
## # ... with 4,034 more rows
```

# 3) What time of day should you fly if you want to avoid delays as much as possible?

```r
flights %>% 
  group_by(year, month, day, time_hour) %>% 
  summarise(delay = mean(arr_delay)) %>% 
  arrange(delay) 
```

```
## Source: local data frame [6,936 x 5]
## Groups: year, month, day [365]
## 
##     year month   day           time_hour     delay
##    <int> <int> <int>              <dttm>     <dbl>
## 1   2013     9    24 2013-09-24 23:00:00 -32.00000
## 2   2013     3    15 2013-03-15 05:00:00 -30.20000
## 3   2013     9    15 2013-09-15 05:00:00 -29.00000
## 4   2013     4     8 2013-04-08 23:00:00 -28.33333
## 5   2013     5    14 2013-05-14 23:00:00 -28.00000
## 6   2013     9    28 2013-09-28 19:00:00 -27.80000
## 7   2013     5    14 2013-05-14 05:00:00 -26.80000
## 8   2013     9     7 2013-09-07 21:00:00 -26.60000
## 9   2013     8    28 2013-08-28 05:00:00 -26.20000
## 10  2013     9     7 2013-09-07 17:00:00 -26.04348
## # ... with 6,926 more rows
```

# 4) For each destination, compute the total minutes of delay. For each, flight, compute the proportion of the total delay for its destination.

```r
flights %>% 
  group_by(dest) %>%
  summarise(sum(arr_delay, na.rm=T))
```

```
## # A tibble: 105 × 2
##     dest `sum(arr_delay, na.rm = T)`
##    <chr>                       <dbl>
## 1    ABQ                        1113
## 2    ACK                        1281
## 3    ALB                        6018
## 4    ANC                         -20
## 5    ATL                      190260
## 6    AUS                       14514
## 7    AVL                        2089
## 8    BDL                        2904
## 9    BGR                        2874
## 10   BHM                        4540
## # ... with 95 more rows
```

```r
flights %>% 
  group_by(flight) %>% 
  summarise(prop_delay = sum(arr_delay >= 0, na.rm = TRUE) / n()) 
```

```
## # A tibble: 3,844 × 2
##    flight prop_delay
##     <int>      <dbl>
## 1       1  0.3880171
## 2       2  0.2745098
## 3       3  0.3597464
## 4       4  0.3740458
## 5       5  0.2839506
## 6       6  0.2619048
## 7       7  0.3966245
## 8       8  0.3050847
## 9       9  0.5228758
## 10     10  0.4262295
## # ... with 3,834 more rows
```
…
```r
# ah, this is more complicated... 
```

# 6) Look at each destination. Can you find flights that are suspiciously fast? (i.e. flights that represent a potential data entry error). Compute the air time a flight relative to the shortest flight to that destination. Which flights were most delayed in the air?

```r
flights %>% 
  group_by(dest) %>% 
  summarise(air_time_ratio = (mean(air_time, na.rm=T)/min(air_time, na.rm=T))) 
```

```
## # A tibble: 105 × 2
##     dest air_time_ratio
##    <chr>          <dbl>
## 1    ABQ       1.175327
## 2    ACK       1.201948
## 3    ALB       1.324462
## 4    ANC       1.064755
## 5    ATL       1.737392
## 6    AUS       1.222574
## 7    AVL       1.182749
## 8    BDL       1.273301
## 9    BGR       1.176463
## 10   BHM       1.169304
## # ... with 95 more rows
```

# 7) Find all destinations that are flown by at least two carriers. Use that information to rank the carriers.

```r
flights %>% 
  group_by(dest) %>% 
  summarise(unique_carrier = length(unique(carrier))) %>% 
            filter(unique_carrier >= 2)  
```

```
## # A tibble: 76 × 2
##     dest unique_carrier
##    <chr>          <int>
## 1    ATL              7
## 2    AUS              6
## 3    AVL              2
## 4    BDL              2
## 5    BGR              2
## 6    BNA              5
## 7    BOS              7
## 8    BQN              2
## 9    BTV              3
## 10   BUF              4
## # ... with 66 more rows
```
…
